lcd/simulation/qsim/Lcd.msim.vcd
$comment
	File created using the following command:
		vcd file Lcd.msim.vcd -direction
$end
$date
	Wed Oct 19 08:28:14 2016
$end
$version
	ModelSim Version 10.1e
$end
$timescale
	1ps
$end
$scope module Lcd_vlg_vec_tst $end
$var reg 1 ! clk $end
$var reg 8 " treg_data_out_pin [7:0] $end
$var wire 1 # command_out [9] $end
$var wire 1 $ command_out [8] $end
$var wire 1 % command_out [7] $end
$var wire 1 & command_out [6] $end
$var wire 1 ' command_out [5] $end
$var wire 1 ( command_out [4] $end
$var wire 1 ) command_out [3] $end
$var wire 1 * command_out [2] $end
$var wire 1 + command_out [1] $end
$var wire 1 , command_out [0] $end
$var wire 1 - counter_out [15] $end
$var wire 1 . counter_out [14] $end
$var wire 1 / counter_out [13] $end
$var wire 1 0 counter_out [12] $end
$var wire 1 1 counter_out [11] $end
$var wire 1 2 counter_out [10] $end
$var wire 1 3 counter_out [9] $end
$var wire 1 4 counter_out [8] $end
$var wire 1 5 counter_out [7] $end
$var wire 1 6 counter_out [6] $end
$var wire 1 7 counter_out [5] $end
$var wire 1 8 counter_out [4] $end
$var wire 1 9 counter_out [3] $end
$var wire 1 : counter_out [2] $end
$var wire 1 ; counter_out [1] $end
$var wire 1 < counter_out [0] $end
$var wire 1 = data_out_pin [7] $end
$var wire 1 > data_out_pin [6] $end
$var wire 1 ? data_out_pin [5] $end
$var wire 1 @ data_out_pin [4] $end
$var wire 1 A data_out_pin [3] $end
$var wire 1 B data_out_pin [2] $end
$var wire 1 C data_out_pin [1] $end
$var wire 1 D data_out_pin [0] $end
$var wire 1 E enable_pin $end
$var wire 1 F power_pin $end
$var wire 1 G rs_pin $end
$var wire 1 H rw_pin $end
$var wire 1 I sampler $end
$scope module i1 $end
$var wire 1 J gnd $end
$var wire 1 K vcc $end
$var wire 1 L unknown $end
$var tri1 1 M devclrn $end
$var tri1 1 N devpor $end
$var tri1 1 O devoe $end
$var wire 1 P data_out_pin[0]~input_o $end
$var wire 1 Q data_out_pin[1]~input_o $end
$var wire 1 R data_out_pin[2]~input_o $end
$var wire 1 S data_out_pin[3]~input_o $end
$var wire 1 T data_out_pin[4]~input_o $end
$var wire 1 U data_out_pin[5]~input_o $end
$var wire 1 V data_out_pin[6]~input_o $end
$var wire 1 W data_out_pin[0]~output_o $end
$var wire 1 X data_out_pin[1]~output_o $end
$var wire 1 Y data_out_pin[2]~output_o $end
$var wire 1 Z data_out_pin[3]~output_o $end
$var wire 1 [ data_out_pin[4]~output_o $end
$var wire 1 \ data_out_pin[5]~output_o $end
$var wire 1 ] data_out_pin[6]~output_o $end
$var wire 1 ^ data_out_pin[7]~output_o $end
$var wire 1 _ rw_pin~output_o $end
$var wire 1 ` rs_pin~output_o $end
$var wire 1 a power_pin~output_o $end
$var wire 1 b enable_pin~output_o $end
$var wire 1 c counter_out[0]~output_o $end
$var wire 1 d counter_out[1]~output_o $end
$var wire 1 e counter_out[2]~output_o $end
$var wire 1 f counter_out[3]~output_o $end
$var wire 1 g counter_out[4]~output_o $end
$var wire 1 h counter_out[5]~output_o $end
$var wire 1 i counter_out[6]~output_o $end
$var wire 1 j counter_out[7]~output_o $end
$var wire 1 k counter_out[8]~output_o $end
$var wire 1 l counter_out[9]~output_o $end
$var wire 1 m counter_out[10]~output_o $end
$var wire 1 n counter_out[11]~output_o $end
$var wire 1 o counter_out[12]~output_o $end
$var wire 1 p counter_out[13]~output_o $end
$var wire 1 q counter_out[14]~output_o $end
$var wire 1 r counter_out[15]~output_o $end
$var wire 1 s command_out[0]~output_o $end
$var wire 1 t command_out[1]~output_o $end
$var wire 1 u command_out[2]~output_o $end
$var wire 1 v command_out[3]~output_o $end
$var wire 1 w command_out[4]~output_o $end
$var wire 1 x command_out[5]~output_o $end
$var wire 1 y command_out[6]~output_o $end
$var wire 1 z command_out[7]~output_o $end
$var wire 1 { command_out[8]~output_o $end
$var wire 1 | command_out[9]~output_o $end
$var wire 1 } clk~input_o $end
$var wire 1 ~ clk~inputclkctrl_outclk $end
$var wire 1 !! busyTick~0_combout $end
$var wire 1 "! busyTick~q $end
$var wire 1 #! data_out_pin[7]~input_o $end
$var wire 1 $! rw~0_combout $end
$var wire 1 %! rw~feeder_combout $end
$var wire 1 &! rw~q $end
$var wire 1 '! instrCounter[0]~15_combout $end
$var wire 1 (! instrCounter[1]~16_combout $end
$var wire 1 )! instrCounter[1]~17 $end
$var wire 1 *! instrCounter[2]~18_combout $end
$var wire 1 +! instrCounter[2]~19 $end
$var wire 1 ,! instrCounter[3]~20_combout $end
$var wire 1 -! instrCounter[3]~21 $end
$var wire 1 .! instrCounter[4]~22_combout $end
$var wire 1 /! instrCounter[4]~23 $end
$var wire 1 0! instrCounter[5]~24_combout $end
$var wire 1 1! instrCounter[5]~25 $end
$var wire 1 2! instrCounter[6]~26_combout $end
$var wire 1 3! instrCounter[6]~27 $end
$var wire 1 4! instrCounter[7]~28_combout $end
$var wire 1 5! instrCounter[7]~29 $end
$var wire 1 6! instrCounter[8]~30_combout $end
$var wire 1 7! instrCounter[8]~31 $end
$var wire 1 8! instrCounter[9]~32_combout $end
$var wire 1 9! instrCounter[9]~33 $end
$var wire 1 :! instrCounter[10]~34_combout $end
$var wire 1 ;! instrCounter[10]~35 $end
$var wire 1 <! instrCounter[11]~36_combout $end
$var wire 1 =! instrCounter[11]~37 $end
$var wire 1 >! instrCounter[12]~38_combout $end
$var wire 1 ?! instrCounter[12]~39 $end
$var wire 1 @! instrCounter[13]~40_combout $end
$var wire 1 A! instrCounter[13]~41 $end
$var wire 1 B! instrCounter[14]~42_combout $end
$var wire 1 C! instrCounter[14]~43 $end
$var wire 1 D! instrCounter[15]~44_combout $end
$var wire 1 E! instrCounter [15] $end
$var wire 1 F! instrCounter [14] $end
$var wire 1 G! instrCounter [13] $end
$var wire 1 H! instrCounter [12] $end
$var wire 1 I! instrCounter [11] $end
$var wire 1 J! instrCounter [10] $end
$var wire 1 K! instrCounter [9] $end
$var wire 1 L! instrCounter [8] $end
$var wire 1 M! instrCounter [7] $end
$var wire 1 N! instrCounter [6] $end
$var wire 1 O! instrCounter [5] $end
$var wire 1 P! instrCounter [4] $end
$var wire 1 Q! instrCounter [3] $end
$var wire 1 R! instrCounter [2] $end
$var wire 1 S! instrCounter [1] $end
$var wire 1 T! instrCounter [0] $end
$upscope $end
$upscope $end
$enddefinitions $end
#0
$dumpvars
0!
bz "
0,
0+
0*
0)
0(
0'
0&
0%
0$
0#
0<
0;
0:
09
08
07
06
05
04
03
02
01
00
0/
0.
0-
0D
0C
0B
0A
0@
0?
0>
0=
1E
1F
0G
0H
xI
0J
1K
xL
1M
1N
1O
0P
0Q
0R
0S
0T
0U
0V
0W
0X
0Y
0Z
0[
0\
0]
0^
0_
0`
1a
1b
0c
0d
0e
0f
0g
0h
0i
0j
0k
0l
0m
0n
0o
0p
0q
0r
0s
0t
0u
0v
0w
0x
0y
0z
0{
0|
0}
0~
1!!
0"!
0#!
1$!
1%!
0&!
0'!
0(!
0)!
0*!
1+!
0,!
0-!
0.!
1/!
00!
01!
02!
13!
04!
05!
06!
17!
08!
09!
0:!
1;!
0<!
0=!
0>!
1?!
0@!
0A!
0B!
1C!
0D!
0T!
0S!
0R!
0Q!
0P!
0O!
0N!
0M!
0L!
0K!
0J!
0I!
0H!
0G!
0F!
0E!
$end
#40000
1!
1}
1~
0I
1&!
1"!
1'!
0$!
0!!
1_
z^
z]
z\
z[
zZ
zY
zX
zW
1H
z=
z>
z?
z@
zA
zB
zC
zD
0%!
z#!
zV
zU
zT
zS
zR
zQ
zP
x'!
x$!
x%!
#80000
0!
0}
0~
1I
#120000
1!
1}
1~
0I
xT!
x&!
0"!
x(!
1$!
1!!
xc
x_
0^
0]
0\
0[
0Z
0Y
0X
0W
x<
xH
0=
0>
0?
0@
0A
0B
0C
0D
1%!
0#!
0V
0U
0T
0S
0R
0Q
0P
#160000
0!
0}
0~
1I
#200000
1!
1}
1~
0I
1&!
1"!
0$!
0!!
1_
z^
z]
z\
z[
zZ
zY
zX
zW
1H
z=
z>
z?
z@
zA
zB
zC
zD
0%!
z#!
zV
zU
zT
zS
zR
zQ
zP
x$!
x%!
#240000
0!
0}
0~
1I
#280000
1!
1}
1~
0I
x&!
0"!
1$!
1!!
x_
0^
0]
0\
0[
0Z
0Y
0X
0W
xH
0=
0>
0?
0@
0A
0B
0C
0D
1%!
0#!
0V
0U
0T
0S
0R
0Q
0P
#320000
0!
0}
0~
1I
#360000
1!
1}
1~
0I
1&!
1"!
0$!
0!!
1_
z^
z]
z\
z[
zZ
zY
zX
zW
1H
z=
z>
z?
z@
zA
zB
zC
zD
0%!
z#!
zV
zU
zT
zS
zR
zQ
zP
x$!
x%!
#400000
0!
0}
0~
1I
