lab4/simulation/qsim/lab4.msim.vcd
$comment
	File created using the following command:
		vcd file lab4.msim.vcd -direction
$end
$date
	Thu Sep 15 22:12:43 2016
$end
$version
	ModelSim Version 10.3d
$end
$timescale
	1ps
$end

$scope module seven_seg_vlg_vec_tst $end
$var reg 1 ! in0 $end
$var reg 1 " in1 $end
$var reg 1 # in2 $end
$var reg 1 $ in3 $end
$var wire 1 % a $end
$var wire 1 & b $end
$var wire 1 ' c $end
$var wire 1 ( d $end
$var wire 1 ) e $end
$var wire 1 * f $end
$var wire 1 + g $end
$var wire 1 , sampler $end

$scope module i1 $end
$var wire 1 - gnd $end
$var wire 1 . vcc $end
$var wire 1 / unknown $end
$var tri1 1 0 devclrn $end
$var tri1 1 1 devpor $end
$var tri1 1 2 devoe $end
$var wire 1 3 a~output_o $end
$var wire 1 4 b~output_o $end
$var wire 1 5 c~output_o $end
$var wire 1 6 d~output_o $end
$var wire 1 7 e~output_o $end
$var wire 1 8 f~output_o $end
$var wire 1 9 g~output_o $end
$var wire 1 : in2~input_o $end
$var wire 1 ; in3~input_o $end
$var wire 1 < in1~input_o $end
$var wire 1 = in0~input_o $end
$var wire 1 > a~0_combout $end
$var wire 1 ? b~0_combout $end
$var wire 1 @ c~0_combout $end
$var wire 1 A d~0_combout $end
$var wire 1 B e~0_combout $end
$var wire 1 C f~0_combout $end
$var wire 1 D g~0_combout $end
$upscope $end
$upscope $end
$enddefinitions $end
#0
$dumpvars
0!
0"
0#
0$
x%
x&
x'
x(
x)
x*
x+
x,
0-
1.
x/
10
11
12
x3
x4
x5
x6
x7
x8
x9
0:
0;
0<
0=
x>
x?
x@
xA
xB
xC
xD
$end
#5496
1>
#6629
1C
#6944
1?
#6951
1@
1A
#6952
1B
#6990
0D
#10067
13
1%
#10078
18
1*
#10198
16
1(
#10207
17
1)
#10517
09
0+
#10529
14
1&
#10554
15
1'
#30000
1!
0,
#30700
1=
#35420
0>
#36847
0C
#36851
0B
#36852
0A
#39949
03
0%
#40067
06
0(
#40073
07
0)
#40235
08
0*
#60000
1"
0!
1,
#60700
1<
#60806
0=
#65637
1>
#66823
1A
#66825
1D
#67460
0@
#67465
1B
#70070
16
1(
#70208
13
1%
#70393
19
1+
#70720
17
1)
#71028
05
0'
#90000
1!
0,
#90700
1=
#96851
0B
#96857
1@
#100073
07
0)
#100460
15
1'
#120000
1#
0"
0!
1,
#120700
1:
#120806
0=
0<
#126111
0>
#127162
0A
#127175
0D
#127461
1C
#127469
1D
#130377
06
0(
#130640
03
0%
#130910
18
1*
#150000
1!
0,
#150700
1=
#155436
1>
#156856
0?
#156858
1A
#160007
13
1%
#160105
16
1(
#160402
04
0&
#180000
1"
0!
1,
#180700
1<
#180806
0=
#186805
0C
#186807
0A
#186809
0D
#186826
1?
#187461
1C
#187465
1B
0?
#187467
1A
#187469
1D
#190720
17
1)
#210000
1!
0,
#210700
1=
#216847
0C
#216851
0B
#216852
0A
#216853
0D
#216862
1?
#220067
06
0(
#220073
07
0)
#220235
08
0*
#220380
09
0+
#220447
14
1&
#240000
1$
0#
0"
0!
1,
#240700
1;
#240806
0=
0<
0:
#247104
1B
#247124
1C
#247134
1D
#247140
0?
#247146
0@
#247467
1A
#247792
1@
#247795
1?
#250359
17
1)
#250573
18
1*
#250702
19
1+
#250714
16
1(
#270000
1!
0,
#270700
1=
#276851
0B
#276852
0A
#280067
06
0(
#280073
07
0)
#300000
1"
0!
1,
#300700
1<
#300806
0=
#305631
0>
#305901
1>
#306810
0?
#306823
1A
#306824
1B
#307461
0A
#307471
1?
#310079
17
1)
#330000
1!
0,
#330700
1=
#335420
0>
#336856
0?
#336858
1A
#339949
03
0%
#340105
16
1(
#340402
04
0&
#360000
1#
0"
0!
1,
#360700
1:
#360806
0=
0<
#365802
1>
#367162
0A
#367173
0@
#367423
0D
#367467
1A
#370373
13
1%
#370741
05
0'
#370950
09
0+
#390000
1!
0,
#390700
1=
#395420
0>
#396847
0C
#396857
1@
#396860
1D
#396862
1?
#399949
03
0%
#400235
08
0*
#400428
19
1+
#400447
14
1&
#400460
15
1'
#420000
1"
0!
1,
#420700
1<
#420806
0=
#425637
1>
#426807
0@
0A
#426810
0?
#426821
1C
#427467
1A
#430208
13
1%
#430270
18
1*
#430356
04
0&
#430375
05
0'
#450000
1!
0,
#450700
1=
#456852
0A
#460067
06
0(
#480000
0$
0#
0"
0!
1,
#480806
0=
0<
0:
0;
#487750
1?
#487757
1@
1A
#487796
0D
#491004
16
1(
#491323
09
0+
#491335
14
1&
#491360
15
1'
