lab4/simulation/qsim/lab4.msim.vcd
$comment
	File created using the following command:
		vcd file lab4.msim.vcd -direction
$end
$date
	Sat Sep 17 14:26:29 2016
$end
$version
	ModelSim Version 10.3d
$end
$timescale
	1ps
$end

$scope module Block1_vlg_vec_tst $end
$var reg 1 ! in0 $end
$var reg 1 " in1 $end
$var reg 1 # in2 $end
$var reg 1 $ in3 $end
$var wire 1 % a $end
$var wire 1 & b $end
$var wire 1 ' c $end
$var wire 1 ( d $end
$var wire 1 ) e $end
$var wire 1 * f $end
$var wire 1 + g $end
$var wire 1 , sampler $end

$scope module i1 $end
$var wire 1 - gnd $end
$var wire 1 . vcc $end
$var wire 1 / unknown $end
$var tri1 1 0 devclrn $end
$var tri1 1 1 devpor $end
$var tri1 1 2 devoe $end
$var wire 1 3 b~output_o $end
$var wire 1 4 d~output_o $end
$var wire 1 5 a~output_o $end
$var wire 1 6 c~output_o $end
$var wire 1 7 f~output_o $end
$var wire 1 8 g~output_o $end
$var wire 1 9 e~output_o $end
$var wire 1 : in3~input_o $end
$var wire 1 ; in2~input_o $end
$var wire 1 < in0~input_o $end
$var wire 1 = in1~input_o $end
$var wire 1 > inst59~0_combout $end
$var wire 1 ? inst60~0_combout $end
$var wire 1 @ inst61~0_combout $end
$var wire 1 A inst62~0_combout $end
$var wire 1 B inst63~0_combout $end
$var wire 1 C inst65~0_combout $end
$upscope $end
$upscope $end
$enddefinitions $end
#0
$dumpvars
0!
0"
0#
0$
0%
1&
1'
1(
0)
1*
0+
x,
0-
1.
x/
10
11
12
13
14
05
16
17
08
09
0:
0;
0<
0=
1>
1?
0@
1A
1B
0C
$end
#30000
1!
1<
0,
0B
0?
04
07
0(
0*
#60000
1"
0!
1=
0<
1,
1C
0A
1@
1?
14
15
06
19
1(
1%
0'
1)
#90000
1!
1<
0,
0C
1A
16
09
1'
0)
#120000
1#
0"
0!
1;
0=
0<
1,
1B
0@
0?
04
05
17
0(
0%
1*
#150000
1!
1<
0,
1@
1?
0>
03
14
15
0&
1(
1%
#180000
1"
0!
1=
0<
1,
1C
1>
13
19
1&
1)
#210000
1!
1<
0,
0C
0B
0?
04
07
09
0(
0*
0)
#240000
1$
0#
0"
0!
1:
0;
0=
0<
1,
1B
1?
0>
03
14
17
0&
1(
1*
#270000
1!
1<
0,
0?
1>
13
04
1&
0(
#300000
1"
0!
1=
0<
1,
1C
19
1)
#330000
1!
1<
0,
0@
1?
0>
03
14
05
0&
1(
0%
#360000
1#
0"
0!
1;
0=
0<
1,
0A
1@
15
06
1%
0'
#390000
1!
1<
0,
0B
1A
0@
1>
13
05
16
07
1&
0%
1'
0*
#420000
1"
0!
1=
0<
1,
1B
0A
1@
15
06
17
1%
0'
1*
#450000
1!
1<
0,
0?
04
0(
#480000
0$
0#
0"
0!
0:
0;
0=
0<
1,
0C
1A
0@
1?
14
05
16
09
1(
0%
1'
0)
